-- Merging decision tree log ---
manifest
ADDED from D:\College Files\Clemson\Semester 4\Android\Project\LittleLearners\app\src\main\AndroidManifest.xml:2:1-97:12
	package
		ADDED from D:\College Files\Clemson\Semester 4\Android\Project\LittleLearners\app\src\main\AndroidManifest.xml:3:5-62
		INJECTED from D:\College Files\Clemson\Semester 4\Android\Project\LittleLearners\app\src\main\AndroidManifest.xml
		INJECTED from D:\College Files\Clemson\Semester 4\Android\Project\LittleLearners\app\src\main\AndroidManifest.xml
	android:versionName
		INJECTED from D:\College Files\Clemson\Semester 4\Android\Project\LittleLearners\app\src\main\AndroidManifest.xml
		INJECTED from D:\College Files\Clemson\Semester 4\Android\Project\LittleLearners\app\src\main\AndroidManifest.xml
	xmlns:android
		ADDED from D:\College Files\Clemson\Semester 4\Android\Project\LittleLearners\app\src\main\AndroidManifest.xml:2:11-69
	android:versionCode
		INJECTED from D:\College Files\Clemson\Semester 4\Android\Project\LittleLearners\app\src\main\AndroidManifest.xml
		INJECTED from D:\College Files\Clemson\Semester 4\Android\Project\LittleLearners\app\src\main\AndroidManifest.xml
uses-permission#android.permission.INTERNET
ADDED from D:\College Files\Clemson\Semester 4\Android\Project\LittleLearners\app\src\main\AndroidManifest.xml:5:5-67
	android:name
		ADDED from D:\College Files\Clemson\Semester 4\Android\Project\LittleLearners\app\src\main\AndroidManifest.xml:5:22-64
application
ADDED from D:\College Files\Clemson\Semester 4\Android\Project\LittleLearners\app\src\main\AndroidManifest.xml:7:5-95:19
MERGED from [com.android.support:design:25.3.1] C:\Users\Bharat Kumar\.android\build-cache\6d6c3fe105d57be8f41433f0115ea6499b102a61\output\AndroidManifest.xml:29:5-20
MERGED from [com.android.support:appcompat-v7:25.3.1] C:\Users\Bharat Kumar\.android\build-cache\0508221c06174de120d4480b09413e15c849b800\output\AndroidManifest.xml:29:5-20
MERGED from [com.android.support:animated-vector-drawable:25.3.1] C:\Users\Bharat Kumar\.android\build-cache\8ffd4bb5c77841d5f61c65130c5806f6db8a3fcc\output\AndroidManifest.xml:26:5-20
MERGED from [com.android.support:support-vector-drawable:25.3.1] C:\Users\Bharat Kumar\.android\build-cache\e8368f5df779e0d1c216f4a9a2bea2f636d10bb8\output\AndroidManifest.xml:26:5-20
MERGED from [com.android.support:transition:25.3.1] C:\Users\Bharat Kumar\.android\build-cache\de8a75bb744ac387da700f02ce9da614d2112b67\output\AndroidManifest.xml:26:5-20
MERGED from [com.android.support:support-v4:25.3.1] C:\Users\Bharat Kumar\.android\build-cache\d600b73c395e5341fd5695ea75e760ed45defd05\output\AndroidManifest.xml:29:5-20
MERGED from [com.android.support:support-fragment:25.3.1] C:\Users\Bharat Kumar\.android\build-cache\82ae2f0779361d95210f157a1cb4c84ee6003d7f\output\AndroidManifest.xml:29:5-20
MERGED from [com.android.support:support-media-compat:25.3.1] C:\Users\Bharat Kumar\.android\build-cache\132c84753c98be5962ee0e0a6b5634b35853c7da\output\AndroidManifest.xml:29:5-20
MERGED from [com.android.support:support-core-ui:25.3.1] C:\Users\Bharat Kumar\.android\build-cache\7f33c7aab4403809d27c6bc697227a0e30818093\output\AndroidManifest.xml:29:5-20
MERGED from [com.android.support:support-core-utils:25.3.1] C:\Users\Bharat Kumar\.android\build-cache\75433988863f6fce2a9bd18478367c659652ca71\output\AndroidManifest.xml:29:5-20
MERGED from [com.android.support:support-compat:25.3.1] C:\Users\Bharat Kumar\.android\build-cache\041c5202c6bbe9afdaf7fef3c476b5e0879c57fd\output\AndroidManifest.xml:29:5-20
MERGED from [com.getbase:floatingactionbutton:1.9.1] C:\Users\Bharat Kumar\.android\build-cache\a1110c6c28b2652d2ff04c42bfc88703ea49880e\output\AndroidManifest.xml:12:5-20
MERGED from [com.android.support.constraint:constraint-layout:1.0.0-beta4] C:\Users\Bharat Kumar\.android\build-cache\8a47baffc6b53548e1aa42299baa941cbb652999\output\AndroidManifest.xml:9:5-20
	android:label
		ADDED from D:\College Files\Clemson\Semester 4\Android\Project\LittleLearners\app\src\main\AndroidManifest.xml:10:9-41
	android:supportsRtl
		ADDED from D:\College Files\Clemson\Semester 4\Android\Project\LittleLearners\app\src\main\AndroidManifest.xml:11:9-35
	android:allowBackup
		ADDED from D:\College Files\Clemson\Semester 4\Android\Project\LittleLearners\app\src\main\AndroidManifest.xml:8:9-35
	android:icon
		ADDED from D:\College Files\Clemson\Semester 4\Android\Project\LittleLearners\app\src\main\AndroidManifest.xml:9:9-36
	android:theme
		ADDED from D:\College Files\Clemson\Semester 4\Android\Project\LittleLearners\app\src\main\AndroidManifest.xml:12:9-51
activity#edu.clemson.cpsc4820.assignment1.littlelearners.HomeScreen
ADDED from D:\College Files\Clemson\Semester 4\Android\Project\LittleLearners\app\src\main\AndroidManifest.xml:13:9-20:20
	android:screenOrientation
		ADDED from D:\College Files\Clemson\Semester 4\Android\Project\LittleLearners\app\src\main\AndroidManifest.xml:14:13-49
	android:name
		ADDED from D:\College Files\Clemson\Semester 4\Android\Project\LittleLearners\app\src\main\AndroidManifest.xml:13:19-45
intent-filter#android.intent.action.MAIN+android.intent.category.LAUNCHER
ADDED from D:\College Files\Clemson\Semester 4\Android\Project\LittleLearners\app\src\main\AndroidManifest.xml:15:13-19:29
action#android.intent.action.MAIN
ADDED from D:\College Files\Clemson\Semester 4\Android\Project\LittleLearners\app\src\main\AndroidManifest.xml:16:17-69
	android:name
		ADDED from D:\College Files\Clemson\Semester 4\Android\Project\LittleLearners\app\src\main\AndroidManifest.xml:16:25-66
category#android.intent.category.LAUNCHER
ADDED from D:\College Files\Clemson\Semester 4\Android\Project\LittleLearners\app\src\main\AndroidManifest.xml:18:17-77
	android:name
		ADDED from D:\College Files\Clemson\Semester 4\Android\Project\LittleLearners\app\src\main\AndroidManifest.xml:18:27-74
activity#edu.clemson.cpsc4820.assignment1.littlelearners.mainMenuInfoScreen
ADDED from D:\College Files\Clemson\Semester 4\Android\Project\LittleLearners\app\src\main\AndroidManifest.xml:21:9-22:51
	android:screenOrientation
		ADDED from D:\College Files\Clemson\Semester 4\Android\Project\LittleLearners\app\src\main\AndroidManifest.xml:22:13-49
	android:name
		ADDED from D:\College Files\Clemson\Semester 4\Android\Project\LittleLearners\app\src\main\AndroidManifest.xml:21:19-53
activity#edu.clemson.cpsc4820.assignment1.littlelearners.mainMenuGameSelect
ADDED from D:\College Files\Clemson\Semester 4\Android\Project\LittleLearners\app\src\main\AndroidManifest.xml:23:9-24:51
	android:screenOrientation
		ADDED from D:\College Files\Clemson\Semester 4\Android\Project\LittleLearners\app\src\main\AndroidManifest.xml:24:13-49
	android:name
		ADDED from D:\College Files\Clemson\Semester 4\Android\Project\LittleLearners\app\src\main\AndroidManifest.xml:23:19-53
activity#edu.clemson.cpsc4820.assignment1.littlelearners.stickManGame
ADDED from D:\College Files\Clemson\Semester 4\Android\Project\LittleLearners\app\src\main\AndroidManifest.xml:25:9-26:51
	android:screenOrientation
		ADDED from D:\College Files\Clemson\Semester 4\Android\Project\LittleLearners\app\src\main\AndroidManifest.xml:26:13-49
	android:name
		ADDED from D:\College Files\Clemson\Semester 4\Android\Project\LittleLearners\app\src\main\AndroidManifest.xml:25:19-47
activity#edu.clemson.cpsc4820.assignment1.littlelearners.mainMenuTopicSelect
ADDED from D:\College Files\Clemson\Semester 4\Android\Project\LittleLearners\app\src\main\AndroidManifest.xml:27:9-28:51
	android:screenOrientation
		ADDED from D:\College Files\Clemson\Semester 4\Android\Project\LittleLearners\app\src\main\AndroidManifest.xml:28:13-49
	android:name
		ADDED from D:\College Files\Clemson\Semester 4\Android\Project\LittleLearners\app\src\main\AndroidManifest.xml:27:19-54
activity#edu.clemson.cpsc4820.assignment1.littlelearners.flashCardSetUp
ADDED from D:\College Files\Clemson\Semester 4\Android\Project\LittleLearners\app\src\main\AndroidManifest.xml:29:9-30:51
	android:screenOrientation
		ADDED from D:\College Files\Clemson\Semester 4\Android\Project\LittleLearners\app\src\main\AndroidManifest.xml:30:13-49
	android:name
		ADDED from D:\College Files\Clemson\Semester 4\Android\Project\LittleLearners\app\src\main\AndroidManifest.xml:29:19-49
activity#edu.clemson.cpsc4820.assignment1.littlelearners.flashCardGame
ADDED from D:\College Files\Clemson\Semester 4\Android\Project\LittleLearners\app\src\main\AndroidManifest.xml:31:9-32:51
	android:screenOrientation
		ADDED from D:\College Files\Clemson\Semester 4\Android\Project\LittleLearners\app\src\main\AndroidManifest.xml:32:13-49
	android:name
		ADDED from D:\College Files\Clemson\Semester 4\Android\Project\LittleLearners\app\src\main\AndroidManifest.xml:31:19-48
activity#edu.clemson.cpsc4820.assignment1.littlelearners.ticTacToeGame
ADDED from D:\College Files\Clemson\Semester 4\Android\Project\LittleLearners\app\src\main\AndroidManifest.xml:33:9-34:51
	android:screenOrientation
		ADDED from D:\College Files\Clemson\Semester 4\Android\Project\LittleLearners\app\src\main\AndroidManifest.xml:34:13-49
	android:name
		ADDED from D:\College Files\Clemson\Semester 4\Android\Project\LittleLearners\app\src\main\AndroidManifest.xml:33:19-48
activity#edu.clemson.cpsc4820.assignment1.littlelearners.flashCardSplashScreen
ADDED from D:\College Files\Clemson\Semester 4\Android\Project\LittleLearners\app\src\main\AndroidManifest.xml:35:9-36:51
	android:screenOrientation
		ADDED from D:\College Files\Clemson\Semester 4\Android\Project\LittleLearners\app\src\main\AndroidManifest.xml:36:13-49
	android:name
		ADDED from D:\College Files\Clemson\Semester 4\Android\Project\LittleLearners\app\src\main\AndroidManifest.xml:35:19-56
activity#edu.clemson.cpsc4820.assignment1.littlelearners.stickManSplashScreen
ADDED from D:\College Files\Clemson\Semester 4\Android\Project\LittleLearners\app\src\main\AndroidManifest.xml:37:9-40:51
	android:screenOrientation
		ADDED from D:\College Files\Clemson\Semester 4\Android\Project\LittleLearners\app\src\main\AndroidManifest.xml:40:13-49
	android:hardwareAccelerated
		ADDED from D:\College Files\Clemson\Semester 4\Android\Project\LittleLearners\app\src\main\AndroidManifest.xml:39:13-48
	android:name
		ADDED from D:\College Files\Clemson\Semester 4\Android\Project\LittleLearners\app\src\main\AndroidManifest.xml:38:13-49
activity#edu.clemson.cpsc4820.assignment1.littlelearners.flashCardInfoScreen
ADDED from D:\College Files\Clemson\Semester 4\Android\Project\LittleLearners\app\src\main\AndroidManifest.xml:41:9-42:51
	android:screenOrientation
		ADDED from D:\College Files\Clemson\Semester 4\Android\Project\LittleLearners\app\src\main\AndroidManifest.xml:42:13-49
	android:name
		ADDED from D:\College Files\Clemson\Semester 4\Android\Project\LittleLearners\app\src\main\AndroidManifest.xml:41:19-54
activity#edu.clemson.cpsc4820.assignment1.littlelearners.TTTSplashScreen
ADDED from D:\College Files\Clemson\Semester 4\Android\Project\LittleLearners\app\src\main\AndroidManifest.xml:43:9-46:51
	android:screenOrientation
		ADDED from D:\College Files\Clemson\Semester 4\Android\Project\LittleLearners\app\src\main\AndroidManifest.xml:46:13-49
	android:hardwareAccelerated
		ADDED from D:\College Files\Clemson\Semester 4\Android\Project\LittleLearners\app\src\main\AndroidManifest.xml:45:13-48
	android:name
		ADDED from D:\College Files\Clemson\Semester 4\Android\Project\LittleLearners\app\src\main\AndroidManifest.xml:44:13-44
activity#edu.clemson.cpsc4820.assignment1.littlelearners.TTTinfo
ADDED from D:\College Files\Clemson\Semester 4\Android\Project\LittleLearners\app\src\main\AndroidManifest.xml:47:9-48:51
	android:screenOrientation
		ADDED from D:\College Files\Clemson\Semester 4\Android\Project\LittleLearners\app\src\main\AndroidManifest.xml:48:13-49
	android:name
		ADDED from D:\College Files\Clemson\Semester 4\Android\Project\LittleLearners\app\src\main\AndroidManifest.xml:47:19-42
activity#edu.clemson.cpsc4820.assignment1.littlelearners.mathBlasterSplashScreen
ADDED from D:\College Files\Clemson\Semester 4\Android\Project\LittleLearners\app\src\main\AndroidManifest.xml:49:9-50:51
	android:screenOrientation
		ADDED from D:\College Files\Clemson\Semester 4\Android\Project\LittleLearners\app\src\main\AndroidManifest.xml:50:13-49
	android:name
		ADDED from D:\College Files\Clemson\Semester 4\Android\Project\LittleLearners\app\src\main\AndroidManifest.xml:49:19-58
activity#edu.clemson.cpsc4820.assignment1.littlelearners.mathBlasterInfoScreen
ADDED from D:\College Files\Clemson\Semester 4\Android\Project\LittleLearners\app\src\main\AndroidManifest.xml:51:9-52:51
	android:screenOrientation
		ADDED from D:\College Files\Clemson\Semester 4\Android\Project\LittleLearners\app\src\main\AndroidManifest.xml:52:13-49
	android:name
		ADDED from D:\College Files\Clemson\Semester 4\Android\Project\LittleLearners\app\src\main\AndroidManifest.xml:51:19-56
activity#edu.clemson.cpsc4820.assignment1.littlelearners.mathBlasterGame
ADDED from D:\College Files\Clemson\Semester 4\Android\Project\LittleLearners\app\src\main\AndroidManifest.xml:53:9-54:51
	android:screenOrientation
		ADDED from D:\College Files\Clemson\Semester 4\Android\Project\LittleLearners\app\src\main\AndroidManifest.xml:54:13-49
	android:name
		ADDED from D:\College Files\Clemson\Semester 4\Android\Project\LittleLearners\app\src\main\AndroidManifest.xml:53:19-50
activity#edu.clemson.cpsc4820.assignment1.littlelearners.quizList
ADDED from D:\College Files\Clemson\Semester 4\Android\Project\LittleLearners\app\src\main\AndroidManifest.xml:55:9-56:51
	android:screenOrientation
		ADDED from D:\College Files\Clemson\Semester 4\Android\Project\LittleLearners\app\src\main\AndroidManifest.xml:56:13-49
	android:name
		ADDED from D:\College Files\Clemson\Semester 4\Android\Project\LittleLearners\app\src\main\AndroidManifest.xml:55:19-43
activity#edu.clemson.cpsc4820.assignment1.littlelearners.quizLanding
ADDED from D:\College Files\Clemson\Semester 4\Android\Project\LittleLearners\app\src\main\AndroidManifest.xml:57:9-58:51
	android:screenOrientation
		ADDED from D:\College Files\Clemson\Semester 4\Android\Project\LittleLearners\app\src\main\AndroidManifest.xml:58:13-49
	android:name
		ADDED from D:\College Files\Clemson\Semester 4\Android\Project\LittleLearners\app\src\main\AndroidManifest.xml:57:19-46
activity#edu.clemson.cpsc4820.assignment1.littlelearners.quizContent
ADDED from D:\College Files\Clemson\Semester 4\Android\Project\LittleLearners\app\src\main\AndroidManifest.xml:59:9-60:51
	android:screenOrientation
		ADDED from D:\College Files\Clemson\Semester 4\Android\Project\LittleLearners\app\src\main\AndroidManifest.xml:60:13-49
	android:name
		ADDED from D:\College Files\Clemson\Semester 4\Android\Project\LittleLearners\app\src\main\AndroidManifest.xml:59:19-46
activity#edu.clemson.cpsc4820.assignment1.littlelearners.geo
ADDED from D:\College Files\Clemson\Semester 4\Android\Project\LittleLearners\app\src\main\AndroidManifest.xml:61:9-65:51
	android:screenOrientation
		ADDED from D:\College Files\Clemson\Semester 4\Android\Project\LittleLearners\app\src\main\AndroidManifest.xml:65:13-49
	android:hardwareAccelerated
		ADDED from D:\College Files\Clemson\Semester 4\Android\Project\LittleLearners\app\src\main\AndroidManifest.xml:63:13-48
	android:largeHeap
		ADDED from D:\College Files\Clemson\Semester 4\Android\Project\LittleLearners\app\src\main\AndroidManifest.xml:64:13-37
	android:name
		ADDED from D:\College Files\Clemson\Semester 4\Android\Project\LittleLearners\app\src\main\AndroidManifest.xml:62:13-32
activity#edu.clemson.cpsc4820.assignment1.littlelearners.geoSplash
ADDED from D:\College Files\Clemson\Semester 4\Android\Project\LittleLearners\app\src\main\AndroidManifest.xml:66:9-70:51
	android:screenOrientation
		ADDED from D:\College Files\Clemson\Semester 4\Android\Project\LittleLearners\app\src\main\AndroidManifest.xml:70:13-49
	android:hardwareAccelerated
		ADDED from D:\College Files\Clemson\Semester 4\Android\Project\LittleLearners\app\src\main\AndroidManifest.xml:68:13-48
	android:largeHeap
		ADDED from D:\College Files\Clemson\Semester 4\Android\Project\LittleLearners\app\src\main\AndroidManifest.xml:69:13-37
	android:name
		ADDED from D:\College Files\Clemson\Semester 4\Android\Project\LittleLearners\app\src\main\AndroidManifest.xml:67:13-38
activity#edu.clemson.cpsc4820.assignment1.littlelearners.continent
ADDED from D:\College Files\Clemson\Semester 4\Android\Project\LittleLearners\app\src\main\AndroidManifest.xml:71:9-72:51
	android:screenOrientation
		ADDED from D:\College Files\Clemson\Semester 4\Android\Project\LittleLearners\app\src\main\AndroidManifest.xml:72:13-49
	android:name
		ADDED from D:\College Files\Clemson\Semester 4\Android\Project\LittleLearners\app\src\main\AndroidManifest.xml:71:19-44
activity#edu.clemson.cpsc4820.assignment1.littlelearners.country
ADDED from D:\College Files\Clemson\Semester 4\Android\Project\LittleLearners\app\src\main\AndroidManifest.xml:73:9-74:51
	android:screenOrientation
		ADDED from D:\College Files\Clemson\Semester 4\Android\Project\LittleLearners\app\src\main\AndroidManifest.xml:74:13-49
	android:name
		ADDED from D:\College Files\Clemson\Semester 4\Android\Project\LittleLearners\app\src\main\AndroidManifest.xml:73:19-42
activity#edu.clemson.cpsc4820.assignment1.littlelearners.progresshome
ADDED from D:\College Files\Clemson\Semester 4\Android\Project\LittleLearners\app\src\main\AndroidManifest.xml:75:9-76:51
	android:screenOrientation
		ADDED from D:\College Files\Clemson\Semester 4\Android\Project\LittleLearners\app\src\main\AndroidManifest.xml:76:13-49
	android:name
		ADDED from D:\College Files\Clemson\Semester 4\Android\Project\LittleLearners\app\src\main\AndroidManifest.xml:75:19-47
activity#edu.clemson.cpsc4820.assignment1.littlelearners.flashcardmode
ADDED from D:\College Files\Clemson\Semester 4\Android\Project\LittleLearners\app\src\main\AndroidManifest.xml:77:9-78:51
	android:screenOrientation
		ADDED from D:\College Files\Clemson\Semester 4\Android\Project\LittleLearners\app\src\main\AndroidManifest.xml:78:13-49
	android:name
		ADDED from D:\College Files\Clemson\Semester 4\Android\Project\LittleLearners\app\src\main\AndroidManifest.xml:77:19-48
activity#edu.clemson.cpsc4820.assignment1.littlelearners.create_a_level
ADDED from D:\College Files\Clemson\Semester 4\Android\Project\LittleLearners\app\src\main\AndroidManifest.xml:79:9-80:51
	android:screenOrientation
		ADDED from D:\College Files\Clemson\Semester 4\Android\Project\LittleLearners\app\src\main\AndroidManifest.xml:80:13-49
	android:name
		ADDED from D:\College Files\Clemson\Semester 4\Android\Project\LittleLearners\app\src\main\AndroidManifest.xml:79:19-49
activity#edu.clemson.cpsc4820.assignment1.littlelearners.SlapJackGame
ADDED from D:\College Files\Clemson\Semester 4\Android\Project\LittleLearners\app\src\main\AndroidManifest.xml:81:9-85:51
	android:screenOrientation
		ADDED from D:\College Files\Clemson\Semester 4\Android\Project\LittleLearners\app\src\main\AndroidManifest.xml:85:13-49
	android:hardwareAccelerated
		ADDED from D:\College Files\Clemson\Semester 4\Android\Project\LittleLearners\app\src\main\AndroidManifest.xml:83:13-48
	android:largeHeap
		ADDED from D:\College Files\Clemson\Semester 4\Android\Project\LittleLearners\app\src\main\AndroidManifest.xml:84:13-37
	android:name
		ADDED from D:\College Files\Clemson\Semester 4\Android\Project\LittleLearners\app\src\main\AndroidManifest.xml:82:13-41
activity#edu.clemson.cpsc4820.assignment1.littlelearners.SlapJackSplashScreen
ADDED from D:\College Files\Clemson\Semester 4\Android\Project\LittleLearners\app\src\main\AndroidManifest.xml:86:9-87:51
	android:screenOrientation
		ADDED from D:\College Files\Clemson\Semester 4\Android\Project\LittleLearners\app\src\main\AndroidManifest.xml:87:13-49
	android:name
		ADDED from D:\College Files\Clemson\Semester 4\Android\Project\LittleLearners\app\src\main\AndroidManifest.xml:86:19-55
activity#edu.clemson.cpsc4820.assignment1.littlelearners.stickmaninfo
ADDED from D:\College Files\Clemson\Semester 4\Android\Project\LittleLearners\app\src\main\AndroidManifest.xml:88:9-89:51
	android:screenOrientation
		ADDED from D:\College Files\Clemson\Semester 4\Android\Project\LittleLearners\app\src\main\AndroidManifest.xml:89:13-49
	android:name
		ADDED from D:\College Files\Clemson\Semester 4\Android\Project\LittleLearners\app\src\main\AndroidManifest.xml:88:19-47
activity#edu.clemson.cpsc4820.assignment1.littlelearners.slapjackstart
ADDED from D:\College Files\Clemson\Semester 4\Android\Project\LittleLearners\app\src\main\AndroidManifest.xml:90:9-91:51
	android:screenOrientation
		ADDED from D:\College Files\Clemson\Semester 4\Android\Project\LittleLearners\app\src\main\AndroidManifest.xml:91:13-49
	android:name
		ADDED from D:\College Files\Clemson\Semester 4\Android\Project\LittleLearners\app\src\main\AndroidManifest.xml:90:19-48
activity#edu.clemson.cpsc4820.assignment1.littlelearners.slapinfo
ADDED from D:\College Files\Clemson\Semester 4\Android\Project\LittleLearners\app\src\main\AndroidManifest.xml:92:9-93:51
	android:screenOrientation
		ADDED from D:\College Files\Clemson\Semester 4\Android\Project\LittleLearners\app\src\main\AndroidManifest.xml:93:13-49
	android:name
		ADDED from D:\College Files\Clemson\Semester 4\Android\Project\LittleLearners\app\src\main\AndroidManifest.xml:92:19-43
uses-sdk
INJECTED from D:\College Files\Clemson\Semester 4\Android\Project\LittleLearners\app\src\main\AndroidManifest.xml reason: use-sdk injection requested
MERGED from [com.android.support:design:25.3.1] C:\Users\Bharat Kumar\.android\build-cache\6d6c3fe105d57be8f41433f0115ea6499b102a61\output\AndroidManifest.xml:21:5-23:62
MERGED from [com.android.support:appcompat-v7:25.3.1] C:\Users\Bharat Kumar\.android\build-cache\0508221c06174de120d4480b09413e15c849b800\output\AndroidManifest.xml:21:5-23:78
MERGED from [com.android.support:animated-vector-drawable:25.3.1] C:\Users\Bharat Kumar\.android\build-cache\8ffd4bb5c77841d5f61c65130c5806f6db8a3fcc\output\AndroidManifest.xml:20:5-44
MERGED from [com.android.support:support-vector-drawable:25.3.1] C:\Users\Bharat Kumar\.android\build-cache\e8368f5df779e0d1c216f4a9a2bea2f636d10bb8\output\AndroidManifest.xml:20:5-43
MERGED from [com.android.support:recyclerview-v7:25.3.1] C:\Users\Bharat Kumar\.android\build-cache\334428fd25def8a0b8d409468df65ee085dc34a5\output\AndroidManifest.xml:20:5-43
MERGED from [com.android.support:transition:25.3.1] C:\Users\Bharat Kumar\.android\build-cache\de8a75bb744ac387da700f02ce9da614d2112b67\output\AndroidManifest.xml:20:5-44
MERGED from [com.android.support:support-v4:25.3.1] C:\Users\Bharat Kumar\.android\build-cache\d600b73c395e5341fd5695ea75e760ed45defd05\output\AndroidManifest.xml:21:5-23:54
MERGED from [com.android.support:support-fragment:25.3.1] C:\Users\Bharat Kumar\.android\build-cache\82ae2f0779361d95210f157a1cb4c84ee6003d7f\output\AndroidManifest.xml:21:5-23:60
MERGED from [com.android.support:support-media-compat:25.3.1] C:\Users\Bharat Kumar\.android\build-cache\132c84753c98be5962ee0e0a6b5634b35853c7da\output\AndroidManifest.xml:21:5-23:63
MERGED from [com.android.support:support-core-ui:25.3.1] C:\Users\Bharat Kumar\.android\build-cache\7f33c7aab4403809d27c6bc697227a0e30818093\output\AndroidManifest.xml:21:5-23:58
MERGED from [com.android.support:support-core-utils:25.3.1] C:\Users\Bharat Kumar\.android\build-cache\75433988863f6fce2a9bd18478367c659652ca71\output\AndroidManifest.xml:21:5-23:61
MERGED from [com.android.support:support-compat:25.3.1] C:\Users\Bharat Kumar\.android\build-cache\041c5202c6bbe9afdaf7fef3c476b5e0879c57fd\output\AndroidManifest.xml:21:5-23:58
MERGED from [com.getbase:floatingactionbutton:1.9.1] C:\Users\Bharat Kumar\.android\build-cache\a1110c6c28b2652d2ff04c42bfc88703ea49880e\output\AndroidManifest.xml:8:5-10:41
MERGED from [com.android.support.constraint:constraint-layout:1.0.0-beta4] C:\Users\Bharat Kumar\.android\build-cache\8a47baffc6b53548e1aa42299baa941cbb652999\output\AndroidManifest.xml:5:5-7:41
	tools:overrideLibrary
		ADDED from [com.android.support:design:25.3.1] C:\Users\Bharat Kumar\.android\build-cache\6d6c3fe105d57be8f41433f0115ea6499b102a61\output\AndroidManifest.xml:23:9-59
	android:targetSdkVersion
		INJECTED from D:\College Files\Clemson\Semester 4\Android\Project\LittleLearners\app\src\main\AndroidManifest.xml
		INJECTED from D:\College Files\Clemson\Semester 4\Android\Project\LittleLearners\app\src\main\AndroidManifest.xml
	android:minSdkVersion
		INJECTED from D:\College Files\Clemson\Semester 4\Android\Project\LittleLearners\app\src\main\AndroidManifest.xml
		INJECTED from D:\College Files\Clemson\Semester 4\Android\Project\LittleLearners\app\src\main\AndroidManifest.xml
meta-data#android.support.VERSION
ADDED from [com.android.support:design:25.3.1] C:\Users\Bharat Kumar\.android\build-cache\6d6c3fe105d57be8f41433f0115ea6499b102a61\output\AndroidManifest.xml:25:5-27:34
MERGED from [com.android.support:appcompat-v7:25.3.1] C:\Users\Bharat Kumar\.android\build-cache\0508221c06174de120d4480b09413e15c849b800\output\AndroidManifest.xml:25:5-27:34
MERGED from [com.android.support:animated-vector-drawable:25.3.1] C:\Users\Bharat Kumar\.android\build-cache\8ffd4bb5c77841d5f61c65130c5806f6db8a3fcc\output\AndroidManifest.xml:22:5-24:34
MERGED from [com.android.support:support-vector-drawable:25.3.1] C:\Users\Bharat Kumar\.android\build-cache\e8368f5df779e0d1c216f4a9a2bea2f636d10bb8\output\AndroidManifest.xml:22:5-24:34
MERGED from [com.android.support:recyclerview-v7:25.3.1] C:\Users\Bharat Kumar\.android\build-cache\334428fd25def8a0b8d409468df65ee085dc34a5\output\AndroidManifest.xml:22:5-24:34
MERGED from [com.android.support:transition:25.3.1] C:\Users\Bharat Kumar\.android\build-cache\de8a75bb744ac387da700f02ce9da614d2112b67\output\AndroidManifest.xml:22:5-24:34
MERGED from [com.android.support:support-v4:25.3.1] C:\Users\Bharat Kumar\.android\build-cache\d600b73c395e5341fd5695ea75e760ed45defd05\output\AndroidManifest.xml:25:5-27:34
MERGED from [com.android.support:support-fragment:25.3.1] C:\Users\Bharat Kumar\.android\build-cache\82ae2f0779361d95210f157a1cb4c84ee6003d7f\output\AndroidManifest.xml:25:5-27:34
MERGED from [com.android.support:support-media-compat:25.3.1] C:\Users\Bharat Kumar\.android\build-cache\132c84753c98be5962ee0e0a6b5634b35853c7da\output\AndroidManifest.xml:25:5-27:34
MERGED from [com.android.support:support-core-ui:25.3.1] C:\Users\Bharat Kumar\.android\build-cache\7f33c7aab4403809d27c6bc697227a0e30818093\output\AndroidManifest.xml:25:5-27:34
MERGED from [com.android.support:support-core-utils:25.3.1] C:\Users\Bharat Kumar\.android\build-cache\75433988863f6fce2a9bd18478367c659652ca71\output\AndroidManifest.xml:25:5-27:34
MERGED from [com.android.support:support-compat:25.3.1] C:\Users\Bharat Kumar\.android\build-cache\041c5202c6bbe9afdaf7fef3c476b5e0879c57fd\output\AndroidManifest.xml:25:5-27:34
	android:value
		ADDED from [com.android.support:design:25.3.1] C:\Users\Bharat Kumar\.android\build-cache\6d6c3fe105d57be8f41433f0115ea6499b102a61\output\AndroidManifest.xml:27:9-31
	android:name
		ADDED from [com.android.support:design:25.3.1] C:\Users\Bharat Kumar\.android\build-cache\6d6c3fe105d57be8f41433f0115ea6499b102a61\output\AndroidManifest.xml:26:9-47
